<?xml version="1.0" encoding="UTF-8" standalone="no"?>
<!-- Created with Inkscape (http://www.inkscape.org/) -->

<svg
   xmlns:dc="http://purl.org/dc/elements/1.1/"
   xmlns:cc="http://creativecommons.org/ns#"
   xmlns:rdf="http://www.w3.org/1999/02/22-rdf-syntax-ns#"
   xmlns:svg="http://www.w3.org/2000/svg"
   xmlns="http://www.w3.org/2000/svg"
   xmlns:sodipodi="http://sodipodi.sourceforge.net/DTD/sodipodi-0.dtd"
   xmlns:inkscape="http://www.inkscape.org/namespaces/inkscape"
   width="40.6875mm"
   height="62.237263mm"
   viewBox="0 0 40.687496 62.237263"
   version="1.1"
   id="svg8"
   inkscape:version="0.92.4 (5da689c313, 2019-01-14)"
   sodipodi:docname="paperpawner-logo.svg"
   inkscape:export-filename="/home/ivan/devel/paperminis/public/paperpawner-logo.png"
   inkscape:export-xdpi="26.1194"
   inkscape:export-ydpi="26.1194">
  <defs
     id="defs2">
    <inkscape:perspective
       sodipodi:type="inkscape:persp3d"
       inkscape:vp_x="0 : 148.5 : 1"
       inkscape:vp_y="0 : 999.99999 : 0"
       inkscape:vp_z="209.99999 : 148.5 : 1"
       inkscape:persp3d-origin="104.99999 : 98.999999 : 1"
       id="perspective829" />
  </defs>
  <sodipodi:namedview
     id="base"
     pagecolor="#ffffff"
     bordercolor="#666666"
     borderopacity="1.0"
     inkscape:pageopacity="0.0"
     inkscape:pageshadow="2"
     inkscape:zoom="2.8"
     inkscape:cx="85.436506"
     inkscape:cy="120.10964"
     inkscape:document-units="mm"
     inkscape:current-layer="layer1"
     showgrid="true"
     fit-margin-top="0"
     fit-margin-left="0"
     fit-margin-right="0"
     fit-margin-bottom="0"
     inkscape:window-width="1920"
     inkscape:window-height="1021"
     inkscape:window-x="1920"
     inkscape:window-y="0"
     inkscape:window-maximized="1">
    <inkscape:grid
       type="xygrid"
       id="grid815"
       originx="-18.020827"
       originy="-219.10416" />
  </sodipodi:namedview>
  <metadata
     id="metadata5">
    <rdf:RDF>
      <cc:Work
         rdf:about="">
        <dc:format>image/svg+xml</dc:format>
        <dc:type
           rdf:resource="http://purl.org/dc/dcmitype/StillImage" />
        <dc:title></dc:title>
      </cc:Work>
    </rdf:RDF>
  </metadata>
  <g
     inkscape:label="Capa 1"
     inkscape:groupmode="layer"
     id="layer1"
     transform="translate(-18.020832,-15.658571)">
    <ellipse
       style="fill:#ffffff;fill-opacity:1;stroke:#000000;stroke-width:1;stroke-miterlimit:4;stroke-dasharray:none;stroke-opacity:1"
       id="path817"
       cx="38.364582"
       cy="66.8125"
       rx="19.84375"
       ry="10.583333" />
    <path
       style="fill:#ffffff;fill-opacity:1;stroke:#000000;stroke-width:1;stroke-linecap:butt;stroke-linejoin:miter;stroke-miterlimit:4;stroke-dasharray:none;stroke-opacity:1"
       d="M 25.135416,58.875001 V 16.541666 L 51.59375,32.416663 51.593749,74.75 Z"
       id="path859"
       inkscape:connector-curvature="0"
       sodipodi:nodetypes="ccccc" />
    <path
       id="path2220"
       style="fill:#aeaeae;fill-opacity:1;stroke:#999999;stroke-width:0.2;stroke-miterlimit:4;stroke-dasharray:none;stroke-opacity:1"
       d="m 40.653583,68.373267 c -0.06685,-0.0973 -0.121535,-0.207855 -0.121535,-0.245895 0,-0.03793 -0.122836,-0.319985 -0.272961,-0.626662 -0.157302,-0.321326 -0.286687,-0.649054 -0.305352,-0.773431 -0.06063,-0.403948 -0.140682,-0.652366 -0.32812,-1.018151 -0.102954,-0.200898 -0.191323,-0.421481 -0.196364,-0.4901 -0.0051,-0.06868 -0.01284,-0.755024 -0.01733,-1.525314 -0.01004,-1.726008 -0.137853,-2.831376 -0.585258,-5.062235 -0.155294,-0.77433 -0.170782,-0.943176 -0.204937,-2.234238 -0.02032,-0.768131 -0.052,-1.432323 -0.07039,-1.475973 -0.05532,-0.131235 -0.250946,-1.657218 -0.344951,-2.690815 -0.04845,-0.53279 -0.135368,-1.250986 -0.193133,-1.595965 -0.120407,-0.719074 -0.40747,-1.822658 -0.450905,-1.733466 -0.102991,0.211473 -0.153549,1.321053 -0.118708,2.605457 0.03148,1.160492 0.02331,1.473553 -0.04656,1.78361 -0.09046,0.401503 -0.0797,0.513097 0.12042,1.248569 0.145373,0.53426 0.150724,1.079373 0.02878,2.931922 -0.104256,1.583743 -0.07849,3.689049 0.06238,5.098903 0.05308,0.531214 0.07285,0.939271 0.04573,0.943622 -0.02629,0.0042 -0.286065,-0.09378 -0.577279,-0.217753 -0.658728,-0.280443 -0.904422,-0.290542 -1.167299,-0.04797 -0.306225,0.282576 -0.431943,0.304073 -0.72788,0.124435 -0.140105,-0.08503 -0.331462,-0.165466 -0.425235,-0.178728 -0.206038,-0.02912 -0.65219,-0.35288 -0.921667,-0.668853 -0.389295,-0.456416 -0.538683,-1.262385 -0.295793,-1.595828 0.125906,-0.172836 0.268141,-0.186741 0.65536,-0.06406 0.38338,0.121461 0.999522,-0.02529 1.204411,-0.286861 0.165719,-0.211575 0.170689,-0.238465 0.143117,-0.774255 -0.01903,-0.369804 -0.12291,-1.045988 -0.311258,-2.026057 -0.40247,-2.094257 -0.493054,-2.749252 -0.550785,-3.982544 -0.05717,-1.221105 -0.14221,-1.905842 -0.410453,-3.304608 -0.315994,-1.64775 -0.421426,-2.47992 -0.626343,-4.943691 -0.141227,-1.698014 -0.142073,-2.438732 -0.0035,-3.00059 0.05888,-0.23855 0.132844,-0.779936 0.164375,-1.203087 0.03153,-0.423141 0.107925,-0.968356 0.169778,-1.21158 0.189452,-0.745053 0.229495,-1.048093 0.198034,-1.498612 -0.03239,-0.463889 -0.370719,-2.501947 -0.470435,-2.833886 l -0.06018,-0.200328 -0.172459,0.01497 c -0.257197,0.02234 -1.046231,-0.193242 -1.776886,-0.485471 -0.581956,-0.232761 -0.700666,-0.298704 -1.176309,-0.653429 -0.619108,-0.462188 -0.761296,-0.637695 -0.957273,-1.185319 -0.309185,-0.863859 -0.418129,-2.95161 -0.218166,-4.180882 0.05228,-0.321447 0.109461,-0.856558 0.127045,-1.189139 0.02808,-0.530817 0.01766,-0.657538 -0.08517,-1.03697 -0.144295,-0.532456 -0.313218,-1.632305 -0.362991,-2.363388 -0.04837,-0.710463 0.01601,-0.908855 0.298413,-0.919409 0.116503,-0.0043 0.237147,0.01119 0.268106,0.03455 0.03096,0.02336 0.129752,0.03606 0.219543,0.02831 0.340808,-0.0296 1.063284,0.39215 1.339936,0.782183 0.164598,0.232047 0.200704,0.461594 0.247698,1.574731 0.01991,0.471589 0.05314,0.887151 0.07384,0.923471 0.0207,0.03632 0.167512,0.05043 0.326246,0.03136 0.405246,-0.04869 0.82352,0.212164 0.896767,0.559331 0.03912,0.185378 -0.02084,0.256881 -0.396197,0.472587 -0.861756,0.495196 -1.018413,0.836333 -1.024095,2.23011 -0.0032,0.784978 0.07697,1.56183 0.168287,1.630739 0.01637,0.01235 0.199385,0.03766 0.406679,0.05632 0.257628,0.02315 0.454858,-0.01656 0.623251,-0.125473 0.443111,-0.286583 0.840722,-0.272522 1.633661,0.05782 0.867223,0.361273 1.89657,0.526529 2.008703,0.322487 0.03168,-0.05765 0.04754,-0.309269 0.03523,-0.559162 -0.01996,-0.405213 -0.0523,-0.538992 -0.299171,-1.237367 -0.638743,-1.806914 -0.753977,-2.452336 -0.517203,-2.896793 0.226153,-0.424534 0.839484,-0.687717 1.116143,-0.478946 0.07049,0.05319 0.275924,0.112276 0.456508,0.131142 0.416601,0.04367 0.705001,0.17382 1.023378,0.461818 0.563604,0.509844 1.40153,1.912015 1.79571,3.004954 0.367644,1.019356 0.346116,1.261687 -0.18019,2.028226 -0.56464,0.822383 -0.599094,1.026499 -0.279762,1.657425 0.477069,0.942577 1.37002,2.205168 2.084846,2.947892 0.522282,0.542666 0.720445,0.795342 0.905069,1.154082 0.460891,0.895526 0.636201,1.804562 0.905905,4.697368 0.139354,1.494697 0.222644,2.182836 0.467586,3.863114 0.0409,0.28059 -0.05767,0.93031 -0.30376,2.002074 -0.240797,1.048736 -0.381274,1.762721 -0.544196,2.765918 -0.152837,0.941096 -0.352985,1.342886 -0.736517,1.478511 -0.212663,0.0752 -0.274746,0.222699 -0.387875,0.921511 -0.04555,0.281408 -0.137732,0.642467 -0.204831,0.802353 -0.108445,0.258401 -0.12177,0.40331 -0.119948,1.303869 0.0019,0.921876 0.01666,1.088239 0.164044,1.84625 0.15733,0.809148 0.161905,0.87315 0.159054,2.225273 -0.0032,1.521387 -0.07388,2.17506 -0.333647,3.086074 -0.112735,0.395366 -0.147009,0.655894 -0.146958,1.117156 8.1e-5,0.718176 0.09331,1.08403 0.758793,2.977647 l 0.417994,1.189397 -0.155238,0.17315 c -0.287796,0.320987 -0.412384,0.33849 -0.801471,0.112644 -0.46311,-0.268779 -0.591742,-0.370187 -0.735979,-0.58005 z m 0.890636,-19.653254 c 0.04341,-0.373184 -0.05497,-2.584117 -0.166827,-3.749324 -0.0768,-0.800017 -0.164648,-1.312237 -0.301355,-1.757122 L 41.010417,43 l -0.05134,0.125308 c -0.09308,0.22717 -0.04918,1.413645 0.122786,3.318862 0.162897,1.804728 0.274598,2.568845 0.37758,2.582908 0.02656,0.0037 0.06472,-0.134548 0.08478,-0.307062 z"
       inkscape:connector-curvature="0" />
  </g>
</svg>
